<svg xmlns="http://www.w3.org/2000/svg" width="26" height="28" viewBox="0 0 26 28">
  <defs>
    <style>
      .cls-1 {
        fill: #fff;
        fill-rule: evenodd;
      }
    </style>
  </defs>
  <path id="Forma_1" data-name="Forma 1" class="cls-1" d="M167,20.148a8.809,8.809,0,0,0-3.12,17.059v4.718a0.518,0.518,0,0,0,.52.519h0.52v1.037a0.519,0.519,0,0,0,.52.519h3.12a0.519,0.519,0,0,0,.52-0.519V42.444h0.52a0.518,0.518,0,0,0,.52-0.519V37.207A8.809,8.809,0,0,0,167,20.148Zm1.56,21.259a0.519,0.519,0,0,0-.52.518v1.037h-2.08V41.926a0.519,0.519,0,0,0-.52-0.518h-0.52V38.815h4.16v2.593h-0.52Zm0.878-5.06a0.519,0.519,0,0,0-.358.493v0.938h-4.16V36.84a0.518,0.518,0,0,0-.358-0.493A7.8,7.8,0,1,1,169.438,36.348ZM167,19.111a0.519,0.519,0,0,0,.52-0.518V16.519a0.52,0.52,0,0,0-1.04,0v2.074A0.519,0.519,0,0,0,167,19.111Zm12.48,9.333H177.4a0.519,0.519,0,1,0,0,1.037h2.08A0.519,0.519,0,1,0,179.48,28.444Zm-22.88,0h-2.08a0.519,0.519,0,1,0,0,1.037h2.08A0.519,0.519,0,1,0,156.6,28.444ZM175.457,19.8l-1.47,1.466a0.519,0.519,0,0,0,.735.733l1.471-1.466A0.519,0.519,0,0,0,175.457,19.8ZM159.278,35.93L157.807,37.4a0.519,0.519,0,0,0,.736.733l1.47-1.466A0.519,0.519,0,0,0,159.278,35.93Zm15.444,0a0.519,0.519,0,0,0-.735.733l1.47,1.466a0.519,0.519,0,0,0,.736-0.733ZM159.278,22a0.519,0.519,0,1,0,.735-0.733l-1.47-1.466a0.519,0.519,0,0,0-.736.733Z" transform="translate(-154 -16)"/>
  <path id="off" class="cls-1" d="M163.528,27.459a2.55,2.55,0,0,0-2.544,2.81,2.483,2.483,0,0,0,2.46,2.723A2.55,2.55,0,0,0,166,30.181,2.474,2.474,0,0,0,163.528,27.459Zm-0.021.722c1.1,0,1.538,1.137,1.538,2.034a1.616,1.616,0,1,1-3.117.022C161.928,29.23,162.405,28.18,163.507,28.18Zm7.775,4.691V28.311h1.229V27.579h-1.24V27.295c0-.809.212-1.531,1-1.531a1.413,1.413,0,0,1,.6.12l0.116-.744a2.056,2.056,0,0,0-.795-0.153,1.747,1.747,0,0,0-1.24.492,2.547,2.547,0,0,0-.6,1.848v0.252H168.2v-0.23c0-.831.2-1.476,0.933-1.476a1.334,1.334,0,0,1,.552.131l0.191-.711a1.605,1.605,0,0,0-.732-0.186,1.72,1.72,0,0,0-1.293.492,2.548,2.548,0,0,0-.573,1.8v0.175h-0.721v0.733h0.721v4.56H168.2V28.311h2.153v4.56h0.933Z" transform="translate(-154 -16)"/>
</svg>
